Chapter 2 Reproducible data science | R for Geographic Data Science
…
As mentioned in the previous chapter, data frames are complex data types which encode the concept of a table in R by combining and arranging together a series of simple objects. Data frames are similar to named lists, where each element of the list is a vector representing a column and all vectors have the same length, thus representing the same number of rows.

2.2.4.1 Example: Flights that Departed NYC in 2013

RStudio and RStudio Server come with a number of libraries already pre-installed. However, you might find yourself in the position of wanting to install additional libraries to work with. The remainder of this chapter requires the library nycflights13, which contains a table listing all the flights that departed from New York City in 2013, and it is also the dataset used in the examples of your suggested reading (R for Data Science, chapter 5) To install it, select Tools > Install Packages… from the top menu. Insert nycflights13 in the Packages (separate multiple with space or comma) field and click install. RStudio will automatically execute the command install.packages("nycflights13") (so, no need to execute that yourself) and install the required library.

As usual, use the function library to load the newly installed library, along with the library knitr, which can be used to produce more nicely-formatted outputs.

library(tidyverse)
library(nycflights13)
library(knitr)

flights

## # A tibble: 336,776 × 19
##     year month   day dep_time sched_de…¹ dep_d…² arr_t…³ sched…⁴ arr_d…⁵ carrier
##    <int> <int> <int>    <int>      <int>   <dbl>   <int>   <int>   <dbl> <chr>  
##  1  2013     1     1      517        515       2     830     819      11 UA     
##  2  2013     1     1      533        529       4     850     830      20 UA     
##  3  2013     1     1      542        540       2     923     850      33 AA     
##  4  2013     1     1      544        545      -1    1004    1022     -18 B6     
##  5  2013     1     1      554        600      -6     812     837     -25 DL     
##  6  2013     1     1      554        558      -4     740     728      12 UA     
##  7  2013     1     1      555        600      -5     913     854      19 B6     
##  8  2013     1     1      557        600      -3     709     723     -14 EV     
##  9  2013     1     1      557        600      -3     838     846      -8 B6     
## 10  2013     1     1      558        600      -2     753     745       8 AA     
## # … with 336,766 more rows, 9 more variables: flight <int>, tailnum <chr>,
## #   origin <chr>, dest <chr>, air_time <dbl>, distance <dbl>, hour <dbl>,
## #   minute <dbl>, time_hour <dttm>, and abbreviated variable names
## #   ¹​sched_dep_time, ²​dep_delay, ³​arr_time, ⁴​sched_arr_time, ⁵​arr_delay
…
## # A tibble: 1 × 19
##    year month   day dep_time sched_dep…¹ dep_d…² arr_t…³ sched…⁴ arr_d…⁵ carrier
##   <int> <int> <int>    <int>       <int>   <dbl>   <int>   <int>   <dbl> <chr>  
## 1  2013     1     1      554         600      -6     812     837     -25 DL     
## # … with 9 more variables: flight <int>, tailnum <chr>, origin <chr>,
## #   dest <chr>, air_time <dbl>, distance <dbl>, hour <dbl>, minute <dbl>,
## #   time_hour <dttm>, and abbreviated variable names ¹​sched_dep_time,
## #   ²​dep_delay, ³​arr_time, ⁴​sched_arr_time, ⁵​arr_delay

# Select the 3rd column
flights[, 4]

## # A tibble: 336,776 × 1
##    dep_time
##       <int>
##  1      517
##  2      533
##  3      542
##  4      544
##  5      554
##  6      554
##  7      555
##  8      557
##  9      557
## 10      558
## # … with 336,766 more rows

# Select the departure time column
flights[, "dep_time"]

## # A tibble: 336,776 × 1
##    dep_time
##       <int>
##  1      517
##  2      533
##  3      542
##  4      544
##  5      554
##  6      554
##  7      555
##  8      557
##  9      557
## 10      558
## # … with 336,766 more rows

# Select the origin, destination and departure time columns
flights[, c("origin", "dest", "dep_time")]

## # A tibble: 336,776 × 3
##    origin dest  dep_time
##    <chr>  <chr>    <int>
##  1 EWR    IAH        517
##  2 LGA    IAH        533
##  3 JFK    MIA        542
##  4 JFK    BQN        544
##  5 LGA    ATL        554
##  6 EWR    ORD        554
##  7 EWR    FLL        555
##  8 LGA    IAD        557
##  9 JFK    MCO        557
## 10 LGA    ORD        558
## # … with 336,766 more rows
…
## # A tibble: 6 × 3
##   origin dest  dep_time
##   <chr>  <chr>    <int>
## 1 LGA    ATL        554
## 2 EWR    ORD        554
## 3 EWR    FLL        555
## 4 LGA    IAD        557
## 5 JFK    MCO        557
## 6 LGA    ORD        558

# Filter all rows where the flights departed at 5.54am
flights[flights$dep_time == 554, ]

## # A tibble: 8,932 × 19
##     year month   day dep_time sched_de…¹ dep_d…² arr_t…³ sched…⁴ arr_d…⁵ carrier
##    <int> <int> <int>    <int>      <int>   <dbl>   <int>   <int>   <dbl> <chr>  
##  1  2013     1     1      554        600      -6     812     837     -25 DL     
##  2  2013     1     1      554        558      -4     740     728      12 UA     
##  3    NA    NA    NA       NA         NA      NA      NA      NA      NA <NA>   
##  4    NA    NA    NA       NA         NA      NA      NA      NA      NA <NA>   
##  5    NA    NA    NA       NA         NA      NA      NA      NA      NA <NA>   
##  6    NA    NA    NA       NA         NA      NA      NA      NA      NA <NA>   
##  7  2013     1     2      554        600      -6     845     901     -16 B6     
##  8  2013     1     2      554        600      -6     841     851     -10 B6     
##  9  2013     1     2      554        600      -6     909     858      11 B6     
## 10    NA    NA    NA       NA         NA      NA      NA      NA      NA <NA>   
## # … with 8,922 more rows, 9 more variables: flight <int>, tailnum <chr>,
## #   origin <chr>, dest <chr>, air_time <dbl>, distance <dbl>, hour <dbl>,
## #   minute <dbl>, time_hour <dttm>, and abbreviated variable names
## #   ¹​sched_dep_time, ²​dep_delay, ³​arr_time, ⁴​sched_arr_time, ⁵​arr_delay

# Filter all rows where the flights departed at 5.54am
# and origin, destination and departure time columns
flights[flights$dep_time == 554, c("origin", "dest", "dep_time")]

## # A tibble: 8,932 × 3
##    origin dest  dep_time
##    <chr>  <chr>    <int>
##  1 LGA    ATL        554
##  2 EWR    ORD        554
##  3 <NA>   <NA>        NA
##  4 <NA>   <NA>        NA
##  5 <NA>   <NA>        NA
##  6 <NA>   <NA>        NA
##  7 JFK    FLL        554
##  8 JFK    PBI        554
##  9 LGA    FLL        554
## 10 <NA>   <NA>        NA
## # … with 8,922 more rows
…
